…
Suppose we wanted to plot life expectancy in Asia.

``` r
gap_asia <- gapminder %>% 
  filter(continent == "Asia") %>% 
  droplevels()
```

``` r
gap_asia %>% 
  group_by(country) %>% 
  summarize(maxlifeExp = max(lifeExp))
```

    ## # A tibble: 33 x 2
    ##    country          maxlifeExp
    ##    <fct>                 <dbl>
    ##  1 Afghanistan            43.8
    ##  2 Bahrain                75.6
    ##  3 Bangladesh             64.1
    ##  4 Cambodia               59.7
    ##  5 China                  73.0
    ##  6 Hong Kong, China       82.2
    ##  7 India                  64.7
    ##  8 Indonesia              70.6
    ##  9 Iran                   71.0
    ## 10 Iraq                   65.0
    ## # ... with 23 more rows
